[gd_scene load_steps=3 format=3 uid="uid://dj0bi6dayvhoj"]

[ext_resource type="Texture2D" uid="uid://we1wmsyjj1lf" path="res://Player/Markio.png" id="1_xim31"]

[sub_resource type="RectangleShape2D" id="RectangleShape2D_gub8g"]

[node name="Zombie" type="Area2D"]

[node name="CollisionShape2D" type="CollisionShape2D" parent="."]
shape = SubResource("RectangleShape2D_gub8g")

[node name="Sprite2D" type="Sprite2D" parent="."]
texture_filter = 1
texture = ExtResource("1_xim31")
